<?xml version="1.0" encoding="UTF-8" standalone="no"?>
<!-- Created with Inkscape (http://www.inkscape.org/) -->
<svg
   xmlns:dc="http://purl.org/dc/elements/1.1/"
   xmlns:cc="http://web.resource.org/cc/"
   xmlns:rdf="http://www.w3.org/1999/02/22-rdf-syntax-ns#"
   xmlns:svg="http://www.w3.org/2000/svg"
   xmlns="http://www.w3.org/2000/svg"
   xmlns:xlink="http://www.w3.org/1999/xlink"
   xmlns:sodipodi="http://sodipodi.sourceforge.net/DTD/sodipodi-0.dtd"
   xmlns:inkscape="http://www.inkscape.org/namespaces/inkscape"
   id="svg2"
   sodipodi:version="0.32"
   inkscape:version="0.44.1"
   width="400"
   height="440"
   sodipodi:docbase="/home/pclouds"
   sodipodi:docname="banner.svg"
   version="1.0">
  <metadata
     id="metadata7">
    <rdf:RDF>
      <cc:Work
         rdf:about="">
        <dc:format>image/svg+xml</dc:format>
        <dc:type
           rdf:resource="http://purl.org/dc/dcmitype/StillImage" />
        <dc:title>Free Software Avatar</dc:title>
        <cc:license
           rdf:resource="http://creativecommons.org/licenses/by-sa/2.5/" />
        <dc:date>26/11/2006</dc:date>
        <dc:creator>
          <cc:Agent>
            <dc:title>Nguyễn Thái Ngọc Duy</dc:title>
          </cc:Agent>
        </dc:creator>
        <dc:language>Vietnamese</dc:language>
      </cc:Work>
      <cc:License
         rdf:about="http://creativecommons.org/licenses/by-sa/2.5/">
        <cc:permits
           rdf:resource="http://web.resource.org/cc/Reproduction" />
        <cc:permits
           rdf:resource="http://web.resource.org/cc/Distribution" />
        <cc:requires
           rdf:resource="http://web.resource.org/cc/Notice" />
        <cc:requires
           rdf:resource="http://web.resource.org/cc/Attribution" />
        <cc:permits
           rdf:resource="http://web.resource.org/cc/DerivativeWorks" />
        <cc:requires
           rdf:resource="http://web.resource.org/cc/ShareAlike" />
      </cc:License>
    </rdf:RDF>
  </metadata>
  <defs
     id="defs5">
    <linearGradient
       id="linearGradient5672">
      <stop
         style="stop-color:black;stop-opacity:1;"
         offset="0"
         id="stop5674" />
      <stop
         style="stop-color:black;stop-opacity:0;"
         offset="1"
         id="stop5676" />
    </linearGradient>
    <linearGradient
       id="linearGradient5656">
      <stop
         id="stop5658"
         offset="0"
         style="stop-color:#ff9c00;stop-opacity:1;" />
      <stop
         style="stop-color:#ffe600;stop-opacity:0;"
         offset="1"
         id="stop5660" />
    </linearGradient>
    <linearGradient
       id="linearGradient5616">
      <stop
         style="stop-color:white;stop-opacity:1;"
         offset="0"
         id="stop5618" />
      <stop
         id="stop5630"
         offset="0.5"
         style="stop-color:white;stop-opacity:0.7719298;" />
      <stop
         style="stop-color:white;stop-opacity:0.36842105;"
         offset="1"
         id="stop5620" />
    </linearGradient>
    <radialGradient
       inkscape:collect="always"
       xlink:href="#linearGradient5616"
       id="radialGradient5634"
       cx="304.64062"
       cy="505.125"
       fx="304.64062"
       fy="505.125"
       r="30.328125"
       gradientTransform="matrix(1,0,0,3.155075,0,-1088.582)"
       gradientUnits="userSpaceOnUse"
       spreadMethod="pad" />
    <radialGradient
       inkscape:collect="always"
       xlink:href="#linearGradient5656"
       id="radialGradient5652"
       cx="157.9758"
       cy="338.59299"
       fx="157.9758"
       fy="338.59299"
       r="35.176796"
       gradientTransform="matrix(1.036364,0,0,0.945454,-26.21105,-13.51022)"
       gradientUnits="userSpaceOnUse" />
    <radialGradient
       inkscape:collect="always"
       xlink:href="#linearGradient5656"
       id="radialGradient5668"
       gradientUnits="userSpaceOnUse"
       gradientTransform="matrix(1.438134,0,0,1.311981,264.8026,113.5435)"
       cx="157.9758"
       cy="338.59299"
       fx="157.9758"
       fy="338.59299"
       r="35.176796" />
    <radialGradient
       inkscape:collect="always"
       xlink:href="#linearGradient5672"
       id="radialGradient5678"
       cx="483.52106"
       cy="570.12024"
       fx="483.52106"
       fy="570.12024"
       r="36.455948"
       gradientTransform="matrix(1.387673,0,0,1.265947,-178.976,-163.971)"
       gradientUnits="userSpaceOnUse" />
    <radialGradient
       inkscape:collect="always"
       xlink:href="#linearGradient5656"
       id="radialGradient6567"
       gradientUnits="userSpaceOnUse"
       gradientTransform="matrix(1.136806,0,0,1.037086,138.7137,221.1962)"
       cx="157.9758"
       cy="338.59299"
       fx="157.9758"
       fy="338.59299"
       r="35.176796" />
    <radialGradient
       inkscape:collect="always"
       xlink:href="#linearGradient5672"
       id="radialGradient6569"
       gradientUnits="userSpaceOnUse"
       gradientTransform="matrix(1.096918,0,0,1.000697,-212.0813,1.828592)"
       cx="483.52106"
       cy="570.12024"
       fx="483.52106"
       fy="570.12024"
       r="36.455948" />
    <radialGradient
       inkscape:collect="always"
       xlink:href="#linearGradient5616"
       id="radialGradient6646"
       gradientUnits="userSpaceOnUse"
       gradientTransform="matrix(1,0,0,3.155075,0,-1088.582)"
       spreadMethod="pad"
       cx="304.64062"
       cy="505.125"
       fx="304.64062"
       fy="505.125"
       r="30.328125" />
    <radialGradient
       inkscape:collect="always"
       xlink:href="#linearGradient5656"
       id="radialGradient6648"
       gradientUnits="userSpaceOnUse"
       gradientTransform="matrix(1.438134,0,0,1.311981,264.8026,113.5435)"
       cx="157.9758"
       cy="338.59299"
       fx="157.9758"
       fy="338.59299"
       r="35.176796" />
    <radialGradient
       inkscape:collect="always"
       xlink:href="#linearGradient5672"
       id="radialGradient6650"
       gradientUnits="userSpaceOnUse"
       gradientTransform="matrix(1.387673,0,0,1.265947,-178.976,-163.971)"
       cx="483.52106"
       cy="570.12024"
       fx="483.52106"
       fy="570.12024"
       r="36.455948" />
    <radialGradient
       inkscape:collect="always"
       xlink:href="#linearGradient5656"
       id="radialGradient6652"
       gradientUnits="userSpaceOnUse"
       gradientTransform="matrix(1.136806,0,0,1.037086,138.7137,221.1962)"
       cx="157.9758"
       cy="338.59299"
       fx="157.9758"
       fy="338.59299"
       r="35.176796" />
    <radialGradient
       inkscape:collect="always"
       xlink:href="#linearGradient5672"
       id="radialGradient6654"
       gradientUnits="userSpaceOnUse"
       gradientTransform="matrix(1.096918,0,0,1.000697,-212.0813,1.828592)"
       cx="483.52106"
       cy="570.12024"
       fx="483.52106"
       fy="570.12024"
       r="36.455948" />
    <radialGradient
       inkscape:collect="always"
       xlink:href="#linearGradient5616"
       id="radialGradient6728"
       gradientUnits="userSpaceOnUse"
       gradientTransform="matrix(1,0,0,3.155075,0,-1088.582)"
       spreadMethod="pad"
       cx="304.64062"
       cy="505.125"
       fx="304.64062"
       fy="505.125"
       r="30.328125" />
    <radialGradient
       inkscape:collect="always"
       xlink:href="#linearGradient5656"
       id="radialGradient6730"
       gradientUnits="userSpaceOnUse"
       gradientTransform="matrix(1.438134,0,0,1.311981,264.8026,113.5435)"
       cx="157.9758"
       cy="338.59299"
       fx="157.9758"
       fy="338.59299"
       r="35.176796" />
    <radialGradient
       inkscape:collect="always"
       xlink:href="#linearGradient5672"
       id="radialGradient6732"
       gradientUnits="userSpaceOnUse"
       gradientTransform="matrix(1.387673,0,0,1.265947,-178.976,-163.971)"
       cx="483.52106"
       cy="570.12024"
       fx="483.52106"
       fy="570.12024"
       r="36.455948" />
    <radialGradient
       inkscape:collect="always"
       xlink:href="#linearGradient5656"
       id="radialGradient6734"
       gradientUnits="userSpaceOnUse"
       gradientTransform="matrix(1.136806,0,0,1.037086,138.7137,221.1962)"
       cx="157.9758"
       cy="338.59299"
       fx="157.9758"
       fy="338.59299"
       r="35.176796" />
    <radialGradient
       inkscape:collect="always"
       xlink:href="#linearGradient5672"
       id="radialGradient6736"
       gradientUnits="userSpaceOnUse"
       gradientTransform="matrix(1.096918,0,0,1.000697,-212.0813,1.828592)"
       cx="483.52106"
       cy="570.12024"
       fx="483.52106"
       fy="570.12024"
       r="36.455948" />
    <radialGradient
       inkscape:collect="always"
       xlink:href="#linearGradient5656"
       id="radialGradient1986"
       gradientUnits="userSpaceOnUse"
       gradientTransform="matrix(1.438134,0,0,1.311981,264.8026,113.5435)"
       cx="157.9758"
       cy="338.59299"
       fx="157.9758"
       fy="338.59299"
       r="35.176796" />
    <radialGradient
       inkscape:collect="always"
       xlink:href="#linearGradient5672"
       id="radialGradient1988"
       gradientUnits="userSpaceOnUse"
       gradientTransform="matrix(1.387673,0,0,1.265947,-178.976,-163.971)"
       cx="483.52106"
       cy="570.12024"
       fx="483.52106"
       fy="570.12024"
       r="36.455948" />
    <radialGradient
       inkscape:collect="always"
       xlink:href="#linearGradient5656"
       id="radialGradient1990"
       gradientUnits="userSpaceOnUse"
       gradientTransform="matrix(1.136806,0,0,1.037086,138.7137,221.1962)"
       cx="157.9758"
       cy="338.59299"
       fx="157.9758"
       fy="338.59299"
       r="35.176796" />
    <radialGradient
       inkscape:collect="always"
       xlink:href="#linearGradient5672"
       id="radialGradient1992"
       gradientUnits="userSpaceOnUse"
       gradientTransform="matrix(1.096918,0,0,1.000697,-212.0813,1.828592)"
       cx="483.52106"
       cy="570.12024"
       fx="483.52106"
       fy="570.12024"
       r="36.455948" />
    <radialGradient
       inkscape:collect="always"
       xlink:href="#linearGradient5616"
       id="radialGradient2011"
       gradientUnits="userSpaceOnUse"
       gradientTransform="matrix(1,0,0,3.155075,-243.2737,-1339.207)"
       spreadMethod="pad"
       cx="304.64062"
       cy="505.125"
       fx="304.64062"
       fy="505.125"
       r="30.328125" />
  </defs>
  <sodipodi:namedview
     inkscape:cy="348.94114"
     inkscape:cx="372.04724"
     inkscape:zoom="0.45136552"
     inkscape:window-height="690"
     inkscape:window-width="1022"
     inkscape:pageshadow="2"
     inkscape:pageopacity="0.0"
     guidetolerance="10.0"
     gridtolerance="10.0"
     objecttolerance="10.0"
     borderopacity="1.0"
     bordercolor="#666666"
     pagecolor="#ffffff"
     id="base"
     inkscape:window-x="0"
     inkscape:window-y="25"
     inkscape:current-layer="svg2"
     width="400px"
     height="440px" />
  <g
     id="g2933">
    <g
       id="g2912">
      <g
         id="g2901">
        <path
           transform="translate(-243.2737,-250.6249)"
           d="M 557.40031 521.44989 A 148.56331 148.56331 0 1 1  260.2737,521.44989 A 148.56331 148.56331 0 1 1  557.40031 521.44989 z"
           sodipodi:ry="148.56331"
           sodipodi:rx="148.56331"
           sodipodi:cy="521.44989"
           sodipodi:cx="408.83701"
           id="path1871"
           style="fill:#ffe600;fill-opacity:1;fill-rule:evenodd;stroke:#cb7200;stroke-width:10;stroke-linecap:butt;stroke-linejoin:miter;stroke-miterlimit:4;stroke-dasharray:none;stroke-opacity:1"
           sodipodi:type="arc" />
        <path
           transform="matrix(0.197157,0,0,0.197157,196.4488,140.4046)"
           d="M 557.40031 521.44989 A 148.56331 148.56331 0 1 1  260.2737,521.44989 A 148.56331 148.56331 0 1 1  557.40031 521.44989 z"
           sodipodi:ry="148.56331"
           sodipodi:rx="148.56331"
           sodipodi:cy="521.44989"
           sodipodi:cx="408.83701"
           id="path2758"
           style="fill:#ffe600;fill-opacity:0.75;fill-rule:evenodd;stroke:#cb7200;stroke-width:50.72100067;stroke-linecap:butt;stroke-linejoin:miter;stroke-miterlimit:4;stroke-dasharray:none;stroke-opacity:1"
           sodipodi:type="arc" />
        <path
           sodipodi:nodetypes="cz"
           id="path5498"
           d="M 160.93968,382.17403 C 181.61117,362.63409 224.54877,362.44406 255.59725,403.91968"
           style="fill:none;fill-opacity:0.75;fill-rule:evenodd;stroke:#cb7200;stroke-width:6;stroke-linecap:round;stroke-linejoin:miter;stroke-miterlimit:4;stroke-dasharray:none;stroke-opacity:1" />
        <path
           id="path5590"
           d="M 89.4138,158.8126 C 54.18739,182.77284 31.0388,223.18319 31.0388,268.96885 C 31.0388,299.54391 41.37727,327.70293 58.7263,350.1876 L 89.00755,350.1876 C 64.73536,328.25397 49.4763,296.54245 49.4763,261.28135 C 49.47631,224.73685 65.8681,192.00739 91.69505,170.03135 L 89.4138,158.8126 z "
           style="fill:url(#radialGradient2011);fill-opacity:1;fill-rule:nonzero;stroke:none;stroke-width:1;stroke-linecap:round;stroke-linejoin:round;stroke-miterlimit:4;stroke-dasharray:none;stroke-opacity:0" />
        <g
           transform="matrix(0.818082,0,0,0.818082,-199.4601,-161.3956)"
           id="g5517">
          <path
             style="fill:none;fill-opacity:0.75;fill-rule:evenodd;stroke:#cb7200;stroke-width:4.52899981;stroke-linecap:round;stroke-linejoin:miter;stroke-miterlimit:4;stroke-dasharray:none;stroke-opacity:0.7258065"
             d="M 285.29527,471.66588 C 295.17736,478.75264 310.75197,491.13866 286.95032,503.9394"
             id="path5508"
             sodipodi:nodetypes="cc" />
          <path
             style="fill:none;fill-opacity:0.75;fill-rule:evenodd;stroke:#cb7200;stroke-width:4.52899981;stroke-linecap:round;stroke-linejoin:miter;stroke-miterlimit:4;stroke-dasharray:none;stroke-opacity:0.7258065"
             d="M 301.01827,457.59794 C 304.21665,477.58624 313.74472,480.14153 334.94683,462.5631"
             id="path5510"
             sodipodi:nodetypes="cc" />
          <path
             style="fill:none;fill-opacity:0.75;fill-rule:evenodd;stroke:#cb7200;stroke-width:4.52899981;stroke-linecap:round;stroke-linejoin:miter;stroke-miterlimit:4;stroke-dasharray:none;stroke-opacity:0.7258065"
             d="M 344.04962,481.59619 C 318.32086,487.10854 319.5274,499.12602 338.25694,513.86971"
             id="path5512"
             sodipodi:nodetypes="cc" />
          <path
             style="fill:none;fill-opacity:0.75;fill-rule:evenodd;stroke:#cb7200;stroke-width:4.52899981;stroke-linecap:round;stroke-linejoin:miter;stroke-miterlimit:4;stroke-dasharray:none;stroke-opacity:0.7258065"
             d="M 293.57053,521.31745 C 312.57967,494.5448 326.65926,522.12855 326.67157,522.14497"
             id="path5514"
             sodipodi:nodetypes="cc" />
        </g>
      </g>
      <g
         id="g6587"
         transform="translate(-243.2737,-250.6249)">
        <rect
           y="511.62"
           x="441.40417"
           height="92.302635"
           width="101.17787"
           id="rect5666"
           style="opacity:1;fill:url(#radialGradient1986);fill-opacity:1;fill-rule:nonzero;stroke:url(#radialGradient1988);stroke-width:1.3876729;stroke-linecap:round;stroke-linejoin:round;stroke-miterlimit:4;stroke-dasharray:none;stroke-opacity:0" />
        <rect
           y="535.86505"
           x="278.31247"
           height="72.962753"
           width="79.978394"
           id="rect6565"
           style="opacity:1;fill:url(#radialGradient1990);fill-opacity:1;fill-rule:nonzero;stroke:url(#radialGradient1992);stroke-width:1.09691823;stroke-linecap:round;stroke-linejoin:round;stroke-miterlimit:4;stroke-dasharray:none;stroke-opacity:0" />
        <g
           id="g5523">
          <path
             style="fill:none;fill-opacity:0.75;fill-rule:evenodd;stroke:black;stroke-width:7.44525385;stroke-linecap:butt;stroke-linejoin:miter;stroke-miterlimit:4;stroke-dasharray:none;stroke-opacity:1"
             d="M 279.00161,533.67906 L 529.14326,533.67906"
             id="path3645" />
          <path
             style="fill:white;fill-opacity:0.75;stroke:#000001;stroke-width:3.39756966;stroke-miterlimit:4;stroke-opacity:1"
             d="M 300.49539,537.38377 C 300.39599,538.27147 300.33983,539.17486 300.33983,540.08118 C 300.33983,558.09909 320.36425,572.73179 345.0473,572.73183 C 369.73034,572.73183 389.75476,558.09908 389.75477,540.08118 C 389.75477,539.17486 389.69861,538.27147 389.59921,537.38377 L 300.49539,537.38377 z "
             id="path4534" />
          <path
             style="fill:white;fill-opacity:0.75;stroke:#000001;stroke-width:3.39756966;stroke-miterlimit:4;stroke-opacity:1"
             d="M 404.39483,537.58549 C 404.29543,538.47319 404.23927,539.37658 404.23927,540.2829 C 404.23927,558.30081 424.26369,572.93351 448.94673,572.93355 C 473.62977,572.93355 493.65419,558.3008 493.6542,540.2829 C 493.6542,539.37658 493.59804,538.47319 493.49864,537.58549 L 404.39483,537.58549 z "
             id="path4563" />
          <path
             sodipodi:type="arc"
             style="fill:black;fill-opacity:1;stroke:#000078;stroke-width:1;stroke-miterlimit:4;stroke-dasharray:none;stroke-opacity:1"
             id="path5494"
             sodipodi:cx="-553.87482"
             sodipodi:cy="412.63675"
             sodipodi:rx="8.3081226"
             sodipodi:ry="8.3081226"
             d="M -545.56669 412.63675 A 8.3081226 8.3081226 0 1 1  -562.18294,412.63675 A 8.3081226 8.3081226 0 1 1  -545.56669 412.63675 z"
             transform="matrix(0.663249,0,0,0.663249,720.3428,267.7683)" />
          <path
             sodipodi:type="arc"
             style="fill:black;fill-opacity:1;stroke:#000078;stroke-width:1;stroke-miterlimit:4;stroke-dasharray:none;stroke-opacity:1"
             id="path5496"
             sodipodi:cx="-553.87482"
             sodipodi:cy="412.63675"
             sodipodi:rx="8.3081226"
             sodipodi:ry="8.3081226"
             d="M -545.56669 412.63675 A 8.3081226 8.3081226 0 1 1  -562.18294,412.63675 A 8.3081226 8.3081226 0 1 1  -545.56669 412.63675 z"
             transform="matrix(0.663249,0,0,0.663249,814.436,266.8863)" />
        </g>
      </g>
    </g>
    <g
       transform="matrix(0.978044,-0.208399,0.208399,0.978044,-23.5906,-143.5133)"
       id="g5583">
      <g
         transform="matrix(1.054158,8.595131e-3,-9.06096e-3,0.999963,0.725198,-1.559501)"
         id="g5562">
        <path
           id="path4567"
           d="M 182.42527,337.73838 L 183.27383,416.50693"
           style="fill:none;fill-opacity:0.75;fill-rule:evenodd;stroke:#cb7200;stroke-width:20;stroke-linecap:round;stroke-linejoin:miter;stroke-miterlimit:4;stroke-dasharray:none;stroke-opacity:1" />
        <rect
           transform="matrix(0.999953,-9.683886e-3,8.778912e-3,0.999961,0,0)"
           y="237.68236"
           x="43.919838"
           height="104.37892"
           width="272.78671"
           id="rect4565"
           style="fill:white;fill-opacity:1;stroke:#787878;stroke-width:10.41893482;stroke-linejoin:round;stroke-miterlimit:4;stroke-dasharray:none;stroke-opacity:1" />
      </g>
      <text
         xml:space="preserve"
         style="font-size:40.45551682px;font-style:normal;font-variant:normal;font-weight:bold;font-stretch:normal;text-align:start;line-height:125%;writing-mode:lr-tb;text-anchor:start;fill:#b90000;fill-opacity:1;stroke:none;stroke-width:1pt;stroke-linecap:butt;stroke-linejoin:miter;stroke-opacity:1;font-family:Vn Nimbus Sans L"
         x="75.399323"
         y="242.62823"
         id="text5548"
         sodipodi:linespacing="125%"
         transform="scale(0.790992,1.264235)"><tspan
           sodipodi:role="line"
           id="tspan5560"
           x="75.399323"
           y="242.62823">Phần mềm Tự do</tspan></text>
    </g>
  </g>
</svg>
